{ "compressionlevel":0,
 "height":40,
 "infinite":false,
 "layers":[
        {
         "data":[30, 30, 30, 30, 30, 30, 30, 30, 30, 30, 30, 30, 30, 30, 30, 30, 30, 30, 30, 30, 30, 30, 30, 30, 14, 15, 16, 30, 30, 30, 30, 30, 30, 30, 30, 30, 30, 30, 30, 30, 30, 46, 30, 30, 30, 30, 30, 30, 31, 30, 30, 30, 30, 30, 30, 30, 30, 30, 30, 30, 30, 30, 30, 46, 14, 15, 16, 30, 31, 30, 30, 30, 30, 30, 30, 30, 30, 30, 30, 30, 30, 30, 30, 30, 30, 30, 30, 30, 30, 30, 30, 30, 30, 30, 30, 30, 30, 30, 30, 30, 30, 30, 30, 30, 14, 15, 16, 30, 30, 30, 30, 30, 30, 30, 30, 30, 32, 30, 30, 30, 30, 30, 31, 30, 30, 30, 30, 30, 30, 30, 30, 30, 30, 30, 30, 30, 30, 30, 30, 30, 30, 30, 30, 31, 22, 23, 24, 30, 30, 30, 30, 30, 30, 30, 30, 32, 30, 30, 32, 30, 30, 30, 30, 30, 30, 31, 30, 30, 30, 30, 30, 30, 30, 30, 30, 30, 30, 30, 30, 30, 30, 30, 30, 30, 30, 1, 3, 30, 30, 31, 30, 30, 30, 30, 30, 30, 30, 30, 30, 30, 30, 30, 30, 30, 30, 30, 30, 30, 30, 30, 30, 25, 26, 26, 26, 26, 26, 26, 26, 26, 26, 26, 26, 27, 30, 9, 11, 30, 30, 30, 30, 30, 30, 30, 30, 30, 30, 30, 30, 30, 30, 30, 30, 30, 30, 30, 30, 30, 30, 30, 30, 33, 34, 34, 34, 34, 34, 34, 34, 34, 34, 34, 34, 35, 30, 9, 11, 30, 30, 30, 30, 6, 7, 7, 7, 8, 30, 46, 30, 30, 30, 30, 30, 30, 30, 30, 40, 30, 30, 30, 30, 33, 34, 36, 42, 37, 34, 34, 34, 34, 34, 34, 34, 35, 30, 9, 11, 30, 30, 30, 30, 14, 15, 15, 15, 16, 30, 30, 30, 30, 30, 30, 30, 30, 30, 30, 30, 30, 30, 30, 30, 33, 34, 35, 30, 33, 34, 34, 34, 34, 34, 34, 34, 35, 30, 9, 11, 30, 30, 30, 30, 14, 15, 15, 15, 12, 8, 30, 30, 30, 30, 30, 30, 30, 30, 30, 30, 30, 38, 30, 30, 33, 34, 35, 31, 33, 34, 34, 34, 34, 34, 34, 34, 35, 30, 9, 11, 30, 30, 30, 30, 22, 23, 5, 15, 15, 16, 30, 30, 30, 30, 30, 30, 30, 30, 48, 38, 30, 30, 30, 30, 33, 34, 44, 26, 45, 34, 34, 34, 34, 34, 34, 34, 35, 30, 9, 11, 30, 30, 30, 30, 30, 30, 14, 15, 15, 16, 30, 30, 30, 30, 30, 30, 40, 30, 30, 30, 40, 30, 30, 30, 33, 34, 34, 34, 34, 34, 34, 34, 36, 42, 37, 34, 35, 30, 9, 11, 30, 30, 30, 30, 30, 31, 22, 23, 23, 24, 30, 30, 30, 40, 30, 30, 30, 30, 40, 38, 30, 30, 38, 30, 41, 42, 42, 42, 42, 37, 34, 34, 44, 26, 45, 34, 35, 30, 9, 11, 30, 30, 30, 30, 30, 30, 30, 30, 30, 30, 30, 30, 30, 30, 39, 30, 30, 30, 38, 30, 40, 30, 30, 30, 30, 30, 30, 30, 30, 41, 42, 42, 42, 42, 42, 42, 43, 30, 9, 11, 30, 30, 30, 30, 30, 30, 30, 30, 30, 30, 30, 30, 30, 30, 30, 30, 39, 30, 30, 30, 30, 30, 30, 30, 30, 30, 30, 30, 30, 30, 30, 30, 30, 30, 30, 30, 30, 30, 9, 11, 30, 30, 30, 31, 30, 30, 30, 30, 30, 30, 30, 30, 30, 7, 7, 8, 1, 2, 2, 2, 2, 2, 3, 30, 30, 30, 1, 2, 2, 2, 2, 2, 2, 2, 2, 2, 2, 2, 29, 11, 30, 30, 30, 30, 31, 30, 31, 30, 30, 30, 30, 30, 30, 15, 15, 16, 9, 10, 10, 10, 10, 10, 11, 30, 30, 30, 9, 10, 10, 10, 10, 10, 10, 10, 10, 10, 10, 10, 10, 11, 30, 30, 30, 31, 30, 30, 30, 30, 30, 30, 30, 30, 30, 23, 23, 24, 17, 18, 18, 18, 18, 18, 19, 30, 30, 30, 17, 18, 18, 18, 18, 18, 18, 18, 18, 18, 18, 18, 18, 19, 30, 30, 30, 30, 30, 30, 32, 30, 30, 30, 30, 30, 30, 30, 30, 39, 30, 30, 30, 30, 30, 30, 30, 30, 30, 30, 30, 30, 30, 30, 30, 30, 30, 30, 30, 30, 30, 30, 30, 30, 30, 30, 32, 30, 30, 30, 30, 30, 30, 30, 30, 32, 31, 30, 30, 30, 30, 39, 30, 30, 30, 30, 30, 30, 30, 30, 30, 30, 30, 30, 30, 30, 30, 30, 30, 30, 30, 30, 30, 30, 30, 30, 30, 30, 30, 30, 30, 30, 30, 30, 30, 30, 32, 39, 30, 30, 30, 30, 30, 30, 30, 30, 30, 30, 30, 30, 30, 30, 30, 30, 32, 30, 30, 30, 30, 30, 30, 30, 30, 25, 26, 26, 26, 26, 26, 26, 26, 26, 26, 26, 26, 27, 30, 30, 30, 30, 30, 30, 30, 30, 30, 30, 30, 30, 30, 30, 30, 30, 30, 30, 30, 30, 30, 30, 30, 30, 30, 46, 30, 33, 34, 34, 34, 34, 34, 34, 34, 34, 36, 42, 37, 35, 30, 30, 30, 30, 30, 30, 30, 30, 30, 30, 30, 30, 30, 30, 32, 30, 30, 30, 30, 30, 30, 30, 30, 30, 30, 30, 30, 33, 34, 34, 34, 34, 34, 34, 34, 34, 35, 48, 33, 35, 30, 30, 30, 30, 30, 30, 30, 30, 30, 30, 30, 30, 30, 30, 30, 30, 30, 30, 32, 30, 30, 30, 30, 30, 30, 30, 47, 33, 34, 34, 34, 34, 34, 34, 34, 34, 35, 48, 33, 35, 30, 30, 30, 30, 30, 30, 30, 30, 30, 30, 30, 30, 30, 30, 30, 30, 30, 30, 30, 30, 30, 30, 30, 39, 30, 30, 30, 33, 34, 34, 34, 34, 34, 34, 34, 34, 35, 48, 33, 35, 30, 30, 30, 30, 30, 30, 30, 30, 30, 30, 30, 30, 30, 30, 30, 30, 30, 30, 30, 30, 30, 30, 30, 30, 30, 30, 30, 33, 34, 34, 34, 34, 34, 34, 34, 34, 44, 26, 45, 35, 30, 30, 30, 30, 30, 30, 39, 30, 39, 30, 30, 30, 30, 30, 30, 30, 30, 30, 30, 30, 30, 30, 30, 30, 30, 47, 30, 33, 34, 34, 34, 34, 34, 34, 34, 34, 34, 34, 34, 35, 30, 30, 30, 30, 30, 30, 30, 30, 30, 30, 30, 30, 30, 30, 30, 30, 30, 30, 30, 30, 30, 30, 30, 30, 30, 30, 30, 33, 34, 34, 34, 34, 34, 34, 34, 34, 34, 34, 34, 35, 48, 30, 30, 30, 30, 30, 39, 30, 30, 30, 30, 30, 30, 30, 30, 30, 30, 30, 30, 30, 30, 30, 30, 30, 30, 30, 30, 33, 34, 34, 34, 34, 34, 34, 34, 34, 34, 34, 34, 35, 30, 30, 30, 30, 30, 30, 30, 30, 30, 30, 30, 30, 30, 30, 30, 30, 30, 30, 30, 30, 30, 30, 30, 30, 30, 30, 30, 41, 42, 42, 42, 42, 42, 42, 42, 42, 42, 42, 42, 43, 30, 30, 30, 38, 30, 38, 30, 30, 30, 30, 32, 30, 30, 30, 30, 30, 30, 30, 30, 30, 30, 30, 30, 30, 30, 30, 30, 30, 30, 30, 30, 30, 30, 30, 30, 30, 30, 30, 30, 30, 30, 30, 38, 30, 30, 30, 30, 30, 30, 30, 30, 30, 30, 30, 30, 30, 30, 30, 30, 30, 30, 30, 30, 40, 30, 30, 30, 30, 30, 30, 30, 30, 30, 30, 30, 30, 30, 32, 30, 30, 30, 30, 30, 30, 38, 30, 30, 30, 30, 30, 30, 30, 30, 30, 30, 30, 30, 30, 30, 30, 40, 30, 30, 30, 30, 30, 30, 30, 30, 30, 30, 30, 30, 30, 30, 30, 30, 30, 30, 30, 30, 30, 30, 30, 30, 30, 30, 32, 30, 30, 30, 30, 30, 30, 30, 30, 30, 30, 40, 30, 30, 30, 30, 30, 30, 30, 30, 30, 30, 30, 30, 30, 32, 30, 30, 30, 31, 30, 30, 30, 30, 30, 30, 30, 30, 30, 30, 30, 6, 7, 7, 7, 7, 8, 30, 30, 30, 30, 30, 30, 30, 40, 30, 40, 30, 30, 30, 30, 30, 30, 30, 30, 30, 30, 30, 30, 30, 30, 32, 30, 30, 26, 26, 26, 26, 26, 26, 26, 45, 34, 34, 34, 34, 44, 27, 30, 30, 30, 30, 30, 30, 30, 30, 30, 30, 30, 30, 30, 30, 30, 30, 30, 30, 30, 30, 30, 30, 30, 30, 30, 30, 34, 34, 34, 34, 34, 34, 34, 34, 34, 34, 34, 34, 34, 35, 30, 30, 30, 30, 40, 30, 30, 30, 30, 30, 30, 30, 30, 30, 30, 30, 30, 30, 30, 30, 30, 30, 30, 30, 30, 30, 34, 34, 34, 34, 34, 34, 34, 34, 34, 34, 34, 34, 34, 35, 30, 30, 30, 30, 30, 30, 30, 30, 30, 30, 30, 30, 30, 30, 30, 30, 30, 30, 30, 30, 30, 30, 30, 30, 30, 30, 34, 34, 34, 34, 34, 34, 34, 34, 34, 34, 34, 34, 34, 35, 30, 30, 30, 32, 30, 30, 30, 30, 30, 30, 30, 30, 32, 30, 30, 30, 30, 30, 30, 30, 30, 30, 30, 30, 30, 30, 34, 34, 34, 34, 34, 34, 34, 34, 34, 34, 34, 34, 34, 35, 30, 30, 30, 30, 30, 30, 30, 30, 30, 30, 30, 30, 30, 30, 30, 30, 30, 30, 30, 30, 30, 30, 30, 30, 30, 30],
         "height":40,
         "id":1,
         "name":"Ground",
         "opacity":1,
         "type":"tilelayer",
         "visible":true,
         "width":40,
         "x":0,
         "y":0
        }],
 "nextlayerid":2,
 "nextobjectid":1,
 "orientation":"orthogonal",
 "renderorder":"right-down",
 "tiledversion":"1.3.2",
 "tileheight":32,
 "tilesets":[
        {
         "columns":8,
         "firstgid":1,
         "image":"..\/..\/..\/exemple\/phaser-examples-master\/examples\/assets\/tilemaps\/tiles\/tmw_desert_spacing.png",
         "imageheight":199,
         "imagewidth":265,
         "margin":1,
         "name":"Desert",
         "spacing":1,
         "tilecount":48,
         "tileheight":32,
         "tilewidth":32
        }],
 "tilewidth":32,
 "type":"map",
 "version":1.1,
 "width":40
}